{
  "env": "prod",
  "instance_url": "http://my.serveur.domain.or.ip",
  "instance_port": 3001,
  "instance_port_socket": 3002,
  "access_pk": "ZmU2NjhiOWUzljIyYTRiYgFk21UiLCJpYXQiOjE1NzMxMjYyMTB9",
  "cron_pk": "BmU2NjhiOWUzVjIyYTRzYTH8N2UiLTJpYXQiOjE1NzVxMjYyMTG5",
  "serve_public_folder": true,
  "public_folder_path": "./public",
  "cors_bypass": [],
  "bind_ports": {
    "http": 3003,
    "socket": 3004
  },
  "cookies": {
    "secure": true,
    "same_site": "None"
  },
  "root_node": {
    "url": "https://plaanet.io",
    "port": 444
  },
  "database": {
    "host": "127.0.0.1",
    "port": 27017,
    "name": "plaanet",
    "username": "",
    "password": "",
    "secure": false
  },
  "multichain": {
    "port": 6272,
    "host": "127.0.0.1",
    "user": "multichainrpc",
    "pass": "YOUR_PASS"
  }
}
